input_daemon_test.vcd
$date
	Fri May 14 13:43:04 2021
$end
$version
	Icarus Verilog
$end
$timescale
	1s
$end
$scope module input_daemon_tb $end
$var wire 33 ! to_output_buf_4 [32:0] $end
$var wire 33 " to_output_buf_3 [32:0] $end
$var wire 33 # to_output_buf_2 [32:0] $end
$var wire 33 $ to_output_buf_1 [32:0] $end
$var reg 1 % clk $end
$var reg 32 & input_word [31:0] $end
$var reg 1 ' rst $end
$scope module input_daemon_instance $end
$var wire 1 % clk $end
$var wire 32 ( input_word [31:0] $end
$var wire 1 ' rst $end
$var wire 8 ) seq_id [7:0] $end
$var wire 16 * pkt_length [15:0] $end
$var wire 8 + dest_id [7:0] $end
$var wire 33 , data_to_outport [32:0] $end
$var reg 16 - count_down [15:0] $end
$var reg 32 . current_input_word [31:0] $end
$var reg 8 / last_dest_id [7:0] $end
$var reg 1 0 new_packet $end
$var reg 16 1 next_count_down [15:0] $end
$var reg 8 2 next_last_dest_id [7:0] $end
$var reg 33 3 to_output_buf_1 [32:0] $end
$var reg 33 4 to_output_buf_2 [32:0] $end
$var reg 33 5 to_output_buf_3 [32:0] $end
$var reg 33 6 to_output_buf_4 [32:0] $end
$upscope $end
$upscope $end
$enddefinitions $end
#0
$dumpvars
bx 6
bx 5
bx 4
bx 3
b0 2
b0 1
10
b0 /
b0 .
b0 -
b100000000000000000000000000000000 ,
b0 +
b0 *
b0 )
b0 (
1'
b0 &
0%
bx $
bx #
bx "
bx !
$end
#20
b0 !
b0 6
b0 "
b0 5
b0 #
b0 4
b0 $
b0 3
b11000000000000010100000001 &
b11000000000000010100000001 (
0'
#25
1%
#50
b11 2
b101 1
b11 +
b101 *
b1 )
b100000011000000000000010100000001 ,
b11000000000000010100000001 .
0%
#70
b100000 &
b100000 (
#75
b100 1
00
b100000011000000000000010100000001 "
b100000011000000000000010100000001 5
b11 /
b101 -
1%
#100
b0 +
b0 *
b100000 )
b100000000000000000000000000100000 ,
b100000 .
0%
#120
b1010 &
b1010 (
#125
b11 1
b100000000000000000000000000100000 "
b100000000000000000000000000100000 5
b100 -
1%
#150
b1010 )
b100000000000000000000000000001010 ,
b1010 .
0%
#170
b111 &
b111 (
#175
b10 1
b100000000000000000000000000001010 "
b100000000000000000000000000001010 5
b11 -
1%
#200
b111 )
b100000000000000000000000000000111 ,
b111 .
0%
#220
b10000000 &
b10000000 (
#225
b1 1
b100000000000000000000000000000111 "
b100000000000000000000000000000111 5
b10 -
1%
#250
b10000000 )
b100000000000000000000000010000000 ,
b10000000 .
0%
#270
b11001000 &
b11001000 (
#275
b0 1
b100000000000000000000000010000000 "
b100000000000000000000000010000000 5
b1 -
1%
#300
b11001000 )
b100000000000000000000000011001000 ,
b11001000 .
0%
#320
b10000000000000001100000010 &
b10000000000000001100000010 (
#325
b0 2
10
b0 1
b100000000000000000000000011001000 "
b100000000000000000000000011001000 5
b0 -
1%
#350
b10 2
b11 1
b10 +
b11 *
b10 )
b100000010000000000000001100000010 ,
b10000000000000001100000010 .
0%
#370
b1110111 &
b1110111 (
#375
b10 1
00
b0 "
b0 5
b100000010000000000000001100000010 #
b100000010000000000000001100000010 4
b10 /
b11 -
1%
#400
b0 +
b0 *
b1110111 )
b100000000000000000000000001110111 ,
b1110111 .
0%
#420
b1001110 &
b1001110 (
#425
b1 1
b100000000000000000000000001110111 #
b100000000000000000000000001110111 4
b10 -
1%
#450
b1001110 )
b100000000000000000000000001001110 ,
b1001110 .
0%
#470
b101011 &
b101011 (
#475
b0 1
b100000000000000000000000001001110 #
b100000000000000000000000001001110 4
b1 -
1%
#500
b101011 )
b100000000000000000000000000101011 ,
b101011 .
0%
#525
b0 2
10
b0 1
b100000000000000000000000000101011 #
b100000000000000000000000000101011 4
b0 -
1%
#550
0%
#575
b0 #
b0 4
b0 /
1%
